@startuml

title __RECIPE's Class Diagram__\n

  namespace  {
    namespace om.marste.restaurant {
      namespace Recipe {
        class com.marste.restaurant.Recipe.Recipe {
            - dishName : String
            - ingredientName : String
            + Recipe()
            + getDishName()
            + getIngredientName()
            + toString()
        }
      }
    }
  }
  

  namespace  {
    namespace om.marste.restaurant {
      namespace Recipe {
        class com.marste.restaurant.Recipe.RecipeController {
            + RecipeController()
            + addRecipe()
            + deleteDishFromRecipes()
            + deleteIngredientFromDishRecipe()
            + getAllRecipes()
            + getRecipesByDishName()
            + updateRecipe()
        }
      }
    }
  }
  

  namespace  {
    namespace om.marste.restaurant {
      namespace Recipe {
        class com.marste.restaurant.Recipe.RecipeDataAccessService {
            - jdbcTemplate : JdbcTemplate
            + RecipeDataAccessService()
            + deleteDishFromRecipes()
            + deleteIngredientFromDishRecipe()
            + updateRecipe()
            ~ insertRecipe()
            ~ selectAllRecipes()
            ~ selectRecipeByDishName()
            - mapRecipeFomDb()
        }
      }
    }
  }
  

  namespace  {
    namespace om.marste.restaurant {
      namespace Recipe {
        class com.marste.restaurant.Recipe.RecipeService {
            + RecipeService()
            + updateRecipe()
            ~ addRecipe()
            ~ deleteDishFromRecipes()
            ~ deleteIngredientFromDishRecipe()
            ~ selectAllRecipes()
            ~ selectRecipesByDishName()
        }
      }
    }
  }
  

  com.marste.restaurant.Recipe.RecipeController o-- com.marste.restaurant.Recipe.RecipeService : recipeService
  com.marste.restaurant.Recipe.RecipeService o-- com.marste.restaurant.Recipe.RecipeDataAccessService : recipeDataAccessService


right footer


PlantUML diagram generated by SketchIt! (https://bitbucket.org/pmesmeur/sketch.it)
For more information about this tool, please contact philippe.mesmeur@gmail.com
endfooter

@enduml
