@startuml
class com.marste.restaurant.Reports.ReportDataAccessControl {
- JdbcTemplate jdbcTemplate
- RowMapper<OrderDataAccessService.details> mapDetailsFromDB()
- RowMapper<Dish> mapDishFomDb()
- RowMapper<Order> mapOrderFromDB()
~ List<Dish> selectAllDishes()
+ List<Order> getAllArchiveOrders()
~ List<OrderDataAccessService.details> getAllOrdersDetails()
}
class com.marste.restaurant.Reports.ReportService {
- ReportDataAccessControl reportDataAccessControl
~ List<Report> getAllReports()
~ Double orderValue(List<Integer>)
~ List<Report> calculateData(List<Order>,List<Report>)
~ List<String> dateString(List<Order>)
~ List<Order> dateCutter(List<Order>)
~ List<Order> findDetailsForOrders()
}
class com.marste.restaurant.Reports.Report {
- String month
- Integer orderAmount
- Integer dishesAmount
- Double value
+ String getMonth()
+ void setMonth(String)
+ Integer getOrderAmount()
+ void setOrderAmount(Integer)
+ Integer getDishesAmount()
+ void setDishesAmount(Integer)
+ Double getValue()
+ void setValue(Double)
}
class com.marste.restaurant.Reports.ReportController {
- ReportService reportService
+ List<Report> getAllReports()
}
@enduml