@startuml

title __SECURITY's Class Diagram__\n

  namespace  {
    namespace om.marste.restaurant {
      namespace Security {
        class com.marste.restaurant.Security.CorsConfig {
            + customCorsFilter()
        }
      }
    }
  }
  

  namespace  {
    namespace om.marste.restaurant {
      namespace Security {
        class com.marste.restaurant.Security.MvcConfig {
            + addResourceHandlers()
        }
      }
    }
  }
  

  namespace  {
    namespace om.marste.restaurant {
      namespace Security {
        class com.marste.restaurant.Security.Oauth2AuthServerConfig {
            ~ authenticationManager : AuthenticationManager
            ~ dataSource : DataSource
            ~ passwordEncoder : PasswordEncoder
            + configure()
            + configure()
            + configure()
            + tokenStore()
        }
      }
    }
  }
  

  namespace  {
    namespace om.marste.restaurant {
      namespace Security {
        class com.marste.restaurant.Security.Oauth2ResourceServerConfig {
            + configure()
        }
      }
    }
  }
  

  namespace  {
    namespace om.marste.restaurant {
      namespace Security {
        class com.marste.restaurant.Security.SecurityConfig {
            ~ dataSource : DataSource
            + authenticationManagerBean()
            + passwordEncoder()
            # configure()
            # configure()
        }
      }
    }
  }
  

  com.marste.restaurant.Security.MvcConfig -up-|> org.springframework.web.servlet.config.annotation.WebMvcConfigurerAdapter
  com.marste.restaurant.Security.Oauth2AuthServerConfig -up-|> org.springframework.security.oauth2.config.annotation.web.configuration.AuthorizationServerConfigurerAdapter
  com.marste.restaurant.Security.Oauth2ResourceServerConfig -up-|> org.springframework.security.oauth2.config.annotation.web.configuration.ResourceServerConfigurerAdapter
  com.marste.restaurant.Security.SecurityConfig -up-|> org.springframework.security.config.annotation.web.configuration.WebSecurityConfigurerAdapter


right footer


PlantUML diagram generated by SketchIt! (https://bitbucket.org/pmesmeur/sketch.it)
For more information about this tool, please contact philippe.mesmeur@gmail.com
endfooter

@enduml
