@startuml

title __DISH's Class Diagram__\n

  namespace  {
    namespace om.marste.restaurant {
      namespace Dish {
        class com.marste.restaurant.Dish.Dish {
            - dishId : Integer
            - dishName : String
            - dishPrice : Double
            + Dish()
            + Dish()
            + getDishId()
            + getDishName()
            + getDishPrice()
            + getDishType()
            + setDishId()
            + toString()
        }
      }
    }
  }
  

  namespace  {
    namespace om.marste.restaurant {
      namespace Dish {
        enum dishType {
          beverages
          burgers
          desserts
          pasta
          pizza
          sides
          starter
        }
      }
    }
  }
  

  namespace  {
    namespace om.marste.restaurant {
      namespace Dish {
        class com.marste.restaurant.Dish.DishController {
            + DishController()
            + addNewDish()
            + deleteDish()
            + getAllDish()
            + getDishById()
            + getDishByName()
            + getDishesByType()
            + updateDish()
        }
      }
    }
  }
  

  namespace  {
    namespace om.marste.restaurant {
      namespace Dish {
        class com.marste.restaurant.Dish.DishDataAccessService {
            - jdbcTemplate : JdbcTemplate
            + DishDataAccessService()
            ~ deleteDishById()
            ~ findLastId()
            ~ insertDish()
            ~ selectAllDishes()
            ~ selectDishById()
            ~ selectDishByName()
            ~ selectDishbyType()
            ~ updateDish()
            - mapDishFomDb()
        }
      }
    }
  }
  

  namespace  {
    namespace om.marste.restaurant {
      namespace Dish {
        class com.marste.restaurant.Dish.DishService {
            + DishService()
            + updateDish()
            ~ addNewDish()
            ~ deleteDish()
            ~ findLastId()
            ~ getAllDish()
            ~ getDishById()
            ~ getDishByName()
            ~ getDishByType()
            ~ getDishesByType()
        }
      }
    }
  }
  

  com.marste.restaurant.Dish.Dish o-- com.marste.restaurant.Dish.Dish.dishType : dishType
  com.marste.restaurant.Dish.Dish +-down- com.marste.restaurant.Dish.Dish.dishType
  com.marste.restaurant.Dish.DishController o-- com.marste.restaurant.Dish.DishService : dishService
  com.marste.restaurant.Dish.DishService o-- com.marste.restaurant.Dish.DishDataAccessService : dishDataAccessService


right footer


PlantUML diagram generated by SketchIt! (https://bitbucket.org/pmesmeur/sketch.it)
For more information about this tool, please contact philippe.mesmeur@gmail.com
endfooter

@enduml
